…
*Some trips have a huge amount of time for casual riders,should it be
normal or not? considering that i can’t ask the company because it’s a
case study, i’m not going to remove it. But this is something to check*

``` r
all_trips_v2[all_trips_v2$ride_length < 2, ]
```

    ## # A tibble: 841 × 11
    ##    ride_id          rideable_type started_at          ended_at           
    ##    <chr>            <chr>         <dttm>              <dttm>             
    ##  1 4EA4F80F9AD47AA9 electric_bike 2022-03-29 14:15:35 2022-03-29 14:15:36
    ##  2 66A7756C839A16B9 electric_bike 2022-03-19 11:33:27 2022-03-19 11:33:28
    ##  3 BE6D32CCD2C8C9BA classic_bike  2022-03-28 18:20:59 2022-03-28 18:20:59
    ##  4 DF215580C8B3EE85 electric_bike 2022-03-08 12:40:46 2022-03-08 12:40:47
    ##  5 36983AF8BC95AFB4 electric_bike 2022-03-17 08:12:04 2022-03-17 08:12:05
    ##  6 ED243C51D5046FEA electric_bike 2022-03-20 15:09:31 2022-03-20 15:09:31
    ##  7 8D4DB330D85196A4 electric_bike 2022-03-05 14:26:44 2022-03-05 14:26:44
    ##  8 65CEA2E75CF349CD classic_bike  2022-03-01 16:41:24 2022-03-01 16:41:25
    ##  9 BEB930450FDB0247 electric_bike 2022-03-23 07:29:19 2022-03-23 07:29:19
    ## 10 E6BE7831CCC4E2F0 classic_bike  2022-03-01 18:29:45 2022-03-01 18:29:46
    ## # ℹ 831 more rows
    ## # ℹ 7 more variables: start_station_name <chr>, start_station_id <chr>,
    ## #   end_station_name <chr>, end_station_id <chr>, member_casual <chr>,
    ## #   ride_length <drtn>, day_of_week <ord>
…
